[
  {
    "title": "Какой лазер у вас? Страна производитель?",
    "content": {
      "type": "dot-list",
      "data": [
        "Лазерный медицинский аппарат Magic one 4 клв с длинной волн 808 мм. Он в 4 раза мощнее своей младшей модели Magic one (всего 1 клв), которые в основном стоят во всех клиниках и в несколько раз дороже. Мы нацелены на результат, поэтому выбираем именно его. Производитель Melsytech - высокотехнологичная российская компания, созданная в 2010 году, проектирует и производит твердотельные лазерные системы и полупроводниковые лазеры любой сложности. Реализует свой продукт по всему миру, так как разработка непосредственно самих диодов является уникальной нано технологией и не имеет аналогов. Диоды закупают крупнейшие заводы США, Китая и Европы для производства лазерных технологий. ",
        "Оборудование компании применяется в косметологии, медицине, гражданской промышленности, в сфере производства измерительной техники. ",
        "Аппарат зарегистрирован в РОСЗДРАВНАДЗОР. "
      ]
    }
  },
  {
    "title": "Чем ваш аппарат лучше других? ",
    "content": {
      "type": "dot-list",
      "data": [
        "Глубина проникновения больше 2,5 мм, а у других - 2 мм. Новейшая система охлаждения на манипуле, исследован и одобрен Росздравнадзором, является медицинским прибором , имеет Регистрационное удостоверение"
      ]
    }
  },
  {
    "title": "Сколько понадобится процедур, чтобы избавиться от волос?",
    "content": {
      "type": "dot-list",
      "data": [
        "В среднем вам понадобиться 6 - 8 процедур, но все зависит от вашего гормонального фона, регенерации, цвета волоса и кожи"
      ]
    }
  },
  {
    "title": "Как гормоны влияют на эффект? Будет ли он?",
    "content": {
      "type": "dot-list",
      "data": [
        "Эффект от ЛЭ все равно будет, но не так ярко выражен. В этом случае обычно проводится больше процедур. Да и сами понимаете: никто не может знать когда именно будет гормональный сбой который может спровоцировать новый рост волос"
      ]
    }
  },
  {
    "title": "Больно ли делать?",
    "content": {
      "type": "dot-list",
      "data": [
        "Вы будете чувствовать легкое покалывание и тепло. В местах где жёсткий волос может ярче выражаться чувствительность . У аппарата потрясающая система охлаждения, что максимально комфортно позволяет проводить процедуру. Но если вы знаете, что у вас высокий порог чувствительности ( для самых чувствительних) то можно использовать анестезию ( Эмла) в зоне бикини максимум"
      ]
    }
  },
  {
    "title": "Какая реакция будет после процедуры?",
    "content": {
      "type": "dot-list",
      "data": [
        "Небольшие покраснения и перефеликулярный отек другими словами эритема.(в виде пузириков) Покраснения могут держаться до суток если не соблюдать рекомендации мастера, то даже дольше"
      ]
    }
  },
  {
    "title": "Через сколько можно делать ЛЭ после шугаринга, воска?",
    "content": {
      "type": "dot-list",
      "data": [
        "Не раньше, чем через месяц. Волос должен восстановиться (от 21-28 дней) . Дело в то что Лазерный луч разрушает именно луковицу и чем больше промежуток времени после механического воздействия ( воска и тд) тем ярче будет результат, так как за этот период восстановятся на много больше луковиц"
      ]
    }
  },
  {
    "title": "Как убрать волосы (как подготовиться)?",
    "content": {
      "type": "dot-list",
      "data": [
        "Бритва, крем для депиляции, тример. За день до процедуры эпилируемые зоны, сбрить все волосы! Во время курса прохождения ЛЭ волосы удалять только такими методами. Так же не рекомендуется наносить крема, масла и дезодоранты и спиртосодержащие вещества. Если процедуру день процедуры на лицо нельзя наносить тональный крем и помаду. ",
        "Пилинги рекомендуем не делать за 10 дней до процедуры",
        "После процедуры обязательно используйте крем с spf не менее 30"
      ]
    }
  },
  {
    "title": "Как часто нужно делать ЛЭ?",
    "content": {
      "type": "dot-list",
      "data": [
        "Первые две - три процедуры делаются раз в месяц, далее интервал увеличивается, по мере росту волос , это отслеживает ваш врач и все параметры вносятся в индивидуальную карту клиента"
      ]
    }
  },
  {
    "title": "Волосы уйдут навсегда?",
    "content": {
      "type": "dot-list",
      "data": [
        "Нет, волосы уходят на 2-3, у кото то дольше, года, или вообще до первого гормонального сбоя( например беременность). Но если поддерживать эффект контрольными вспышками, 1 раз в год, то можно долго радоваться гладкой коже"
      ]
    }
  },
  {
    "title": "Через сколько будет результат? Чего ожидать?",
    "content": {
      "type": "dot-list",
      "data": [
        "От 10 до 14 дней, вы заметите проплешины в обработанных зонах, а так же замедленный рост волос. Уже после первой процедуры: ",
        "Волос становится меньше на 30-50% ",
        "Волоски становятся тонкими и мягкими ",
        "Замедляется их рост ",
        "Кожа выравнивается, постепенно уходят воспаления и пигментация ",
        "Если раньше бриться нужно было каждый день или через день, то теперь будет достаточно делать это всего раз в 1-2 недели"
      ]
    }
  },
  {
    "title": "Берем ли светлый/седой волос?",
    "content": {
      "type": "dot-list",
      "data": [
        "Седой - нет. ",
        "Светлый - смотря какой. Если этот светлый волос темнее, чем ваша кожа, значит в нем есть меланин и лазер его возьмет конечно но эффективность ниже, ежели с чёрным волосом. И процедур понадобится больше. ",
        "Чем темнее волос и светлее кожа, тем максимальный эффект будет от процедуры"
      ]
    }
  },
  {
    "title": "Влияет ли как то лазер на состояние здоровья?",
    "content": {
      "type": "dot-list",
      "data": [
        "Лазер абсолютно безопасен. (тем более наш, он одобрен Росздравнадзором) Инфракрасные лучи которые излучает лазер несут меньше вреда, чем ультрафиолет( например - солярий, солнце). В медицине давно практикуют лазерные технологии для разных видов лечения"
      ]
    }
  },
  {
    "title": "Может ли лазер вызвать онкологию?",
    "content": {
      "type": "dot-list",
      "data": [
        "Лазерная эпиляция не может спровоцировать развитие онкологии, так как энергия воздействует только на верхние слои кожи, глубина проникновения составляет несколько миллиметров. Это подтверждено многими исследованиями и тестированием аппаратов. ",
        "Опасным для организма человека является высокочастотное ионизирующее излучение – рентгеновские и гамма-лучи, которые используются, например, на рентген-аппаратах и томографах. Такое излучение действительно повреждает клеточную ДНК и может спровоцировать развитие злокачественной опухоли.Так как это излучение проникает сквозь ткани и органы, соотвественно может спровоцировать мутацию клеток. ",
        "Излучение же лазера не является ионизирующим, его луч не повреждает клеточную мембрану, и вызвать перерождение клеток не может. ",
        "Онкологические заболевания являются противопоказанием для проведения процедуры лазерной эпиляции потому, что у таких пациентов резко возрастает риск развития осложнений(аллергические реакции, зуд, пигментация, ожоги, воспаления). ",
        "Поэтому все неприятные последствия лазерной эпиляции обычно носят только поверхностный характер "
      ]
    }
  }
]
